name;surname
"Mario";"Rossi"
"Mario";"Rossi"
"Mario";"Rossi"
"Mario";"Rossi"
"Mario";"Rossi"
"Mario";"Rossi"
"Mario";"Rossi"
"Mario";"Rossi"
"Mario";"Rossi"
"Mario";"Rossi"
"Mario";"Rossi"
"Mario";"Rossi"
"Mario";"Rossi"
"Mario";"Rossi"
"Mario";"Rossi"
"Mario";"Rossi"
"Mario";"Rossi"
"Mario";"Rossi"
"Mario";"Rossi"
"Mario";"Rossi"
"Mario";"Rossi"
"Mario";"Rossi"
"Mario";"Rossi"
"Mario";"Rossi"
"Mario";"Rossi"
"Mario";"Rossi"
"Mario";"Rossi"
"Mario";"Rossi"
"Mario";"Rossi"
"Mario";"Rossi"
"Mario";"Rossi"
"Mario";"Rossi"
"Mario";"Rossi"
"Mario";"Rossi"
"Mario";"Rossi"
"Mario";"Rossi"
"Mario";"Rossi"
"Mario";"Rossi"
"Mario";"Rossi"