{
  "secrets": {
    "auth": "this-is-token-to-authenticate",
    "access": "hsdfuhksdhf5435khjsd",
    "refresh": "hsdfuhqswe34qwksdhfkhjsd"
  },
  "cache-storage": {
    "driver": "arango",
    "dsn": "root:!qaz2WSX098@tcp(localhost:8529)/test"
  },
  "auth-storage": {
    "driver": "arango",
    "dsn": "root:!qaz2WSX098@tcp(localhost:8529)/test"
  }
}