{
  "enabled": true,
  "updaters": [
    {
      "uid": "nio_server",
      "version_file": "http://localhost/scripts/nio_server/version.txt",
      "package_files": [
        {
          "file": "http://localhost/scripts/nio_server/nio_server.js",
          "target": "$dir_program"
        }
      ],
      "scheduled_updates": [
        {
          "uid": "every_5_seconds",
          "start_at": "",
          "timeline": "second:5"
        }
      ]
    }
  ]
}