{
  "silent": false,
  "log-level": "debug",
  "actions": [
    {
      "uid": "nio_server",
      "start_at": "",
      "timeline": "second:1",
      "program": "./programs/nio_server.js",
      "variables": {
        "HOST": "192.168.1.1"
      },
      "updater": {
        "version_file_required": true,
        "version_file": "http://localhost/scripts/nio_server/version.txt",
        "package_files": [
          {
            "file": "http://localhost/scripts/nio_server/nio_server.js",
            "target": "$dir_program"
          }
        ],
        "scheduled_updates": [
          {
            "uid": "every_5_seconds",
            "start_at": "",
            "timeline": "second:5"
          }
        ]
      }
    }
  ]
}