{
  "version_file": "http://localhost/downloads/runtime/version.txt",
  "package_files": [
    {
      "file": "http://localhost/downloads/runtime/mac/guardian",
      "target": "$dir_app/"
    },
    {
      "file": "http://localhost/downloads/runtime/settings.production.json",
      "target": "$dir_start/_guardian/"
    }
  ],
  "command_to_run": "$dir_app/guardian run -m=production -dir_start=$dir_start -dir_app=$dir_app -dir_work=$dir_start/_guardian ",
  "scheduled_updates": [
    {
      "uid": "every_10_seconds",
      "start_at": "",
      "timeline": "second:10"
    }
  ],
  "stop_cmd": "stop"
}